{
  "SchemaVersion": 1,
  "Name": "basic",
  "ComponentId": "326f76bb-466f-4371-bc12-9750eaeb0fd6",
  "EntryPoint": "/bin/app",
  "CmdArgs": [],
  "Capabilities": {
    "Gpio": [ "$MT3620_GPIO4" ],
    "AllowedApplicationConnections": []
  },
  "ApplicationType": "Default"
}
